#( x , y )
#('H','C')


########### sHMBC ###########
#s3C
s3HG2	s3C	#sHMBC
s3HG3	s3C	#sHMBC
s9HB3	s3C	#sHMBC


#s3-1C: sp75
s4HB3	s4C
s4HA	s4C	#sHMBC
s4HB2	s4C	#"NotRelevant"!
s3HA	s4C	#sHMBC
s3H	s4C

#Unknown
s3HA	sp158	#Unknown
s3HA	sp156	#Unknown
s3HA	sp157	#Unknown


#"NotRelevant"!
s2HB2	sp112
s2HB3	sp112



########### HMBC ###########
#s3
s3HA	s3CB	#Weak
s3HG2	s3CB
s3HG3	s3CB	#Weak









