Amino acid	Atom name	C	H	Multip.	COSY	HSQC	HSQC_+/-	HMBC
Ala1	1	175.1	-		-	-		-
	2	48.9	4.52		0.91, 4.52, 7.50	48.9		16.5, 175.1
	2-NH		7.50		4.52, 7.50	-		166.0
	3	16.5	0.91		0.91, 4.52	16.5		175.1
Arg2	1	173.9	-		-	-		-
	2	57.6	4.01		1.93, 4.01, 8.06	57.6		173.9, 29.0
	2-NH		8.06		4.01, 8.06	-		175.1, 29.0, 57.6
	3	29.0	1.93		1.72, 1.93, 4.01	29.0		26.6, 57.6
	4	26.6	1.72		1.72, 1.93, 3.19	26.6		-
	5	42.1	3.19		1.72, 3.19	42.1		26.6, 29.0
Asp3	1		-		-	-		-
	2	52.7	4.52		1.90, 2.83, 4.52, 7.92	52.7		175.2
	2-NH		7.92		4.52, 7.92	-		173.9
	3	39.4	-		-	-		-
	4	175.2	-		-	-		-
			-		-	-		-
Tyr4	1	171.8	-		-	-		-
	2	55.7	4.54		2.47, 3.34, 4.54, 8.68	55.7		171.8
	2-NH		8.68		4.54, 8.68	-		175.2
	3	37.3	3.34		2.47, 3.34, 4.54	-		-, 130.6, 171.8
			2.47		2.47, 3.34, 4.54	-		-, 130.6, 171.8
	4	129.9	-		-	-		-
	5	130.6	6.94		6.58, 6.94	130.6		116.0, 130.6, 157.0
	6		-		-	-		-
	7	157.0	-		-	-		-
Adda5	1	176.7	-		-	-	0	-
	2	44.8	3.19		1.07, 3.19, 4.65	44.8	+	16.3, 176.7
	2-Me	16.3	1.07		1.07, 3.19	16.3	+	176.7, 44.8, 56.6
	3	56.6	4.65		3.19, 4.65, 5.52, 8.11	56.6	+	127.0, 171.8, 176.7, 44.8
	3-NH		8.11		4.65, 8.11	-		171.8
	4	127.0	5.52		4.65, 5.52, 6.28	127.0	+	133.9, 56.6
	5	138.5	6.28		5.52, 6.28	138.5	+	12.8, 133.9, 136.6, 56.6
	6	133.9	-		-	-	0	-
	6-Me	12.8	1.63		1.63, 5.45	12.8	+	133.9, 136.6, 138.5, 88.0
	7	136.6	5.45		1.63, 2.60, 5.45	136.6	+	12.8, 138.5, 37.5, 88.0
	8	37.5	2.60		1.02, 2.60, 2.68, 2.83, 3.27, 5.45	37.5	+	88.0
	8-Me	16.7	1.02		1.02, 2.60	16.7	+	136.6, 138.5, 37.5, 88.0
	9	88.0	3.27		2.60, 2.68, 2.83, 3.27	88.0	+	136.6, 16.3
	9-OMe	58.8	3.25		-	-	+	-
	10	38.8	2.68		2.60, 2.68, 2.83, 3.27	38.8	-	129.1, 140.4, 37.5, 88.0
			2.83		2.60, 2.68, 2.83, 3.27	38.8		129.1, 140.4, 37.5, 88.0
	11	140.4	-		-	-	0	-
	12	130.4	7.19		7.19	130.4	+	127.0, 140.4
	13	129.1	7.24		-	129.1	+	126.9, 129.1, 38.8
	14	126.9	7.16		-	126.9	+	129.1
Glu6	1		-		-	-	0	-
	2	55.5	4.25		1.83, 2.15, 4.25, 8.30	55.5	+	-, 176.7, 29.8
	2-NH		8.30		4.25, 8.30	-		176.7
	3	29.8	1.83		1.83, 2.15, 2.49, 2.60, 4.25	29.8	-	-
			2.15		1.83, 2.15, 2.49, 2.60, 4.25	29.8		-
	4	33.5	2.49		1.83, 2.15, 2.49, 2.60	-	-	177.4, 29.8
			2.60		1.83, 2.15, 2.49, 2.60	-		177.4, 29.8
	5	177.4	-		-	-	0	-
Mdha7	1	166.0	-		-	-	0	-
	2	146.2	-		-	-	0	-
	2-NMe	38.3	3.35		-	38.3		146.2, 177.4
	3	113.8	5.42		5.42, 5.84	113.8	-	146.2, 166.0, 177.4
			5.84		5.42, 5.84	113.8		146.2, 166.0
